{
  "id": "abandoned mine_-1660,44,178",
  "name": "abandoned mine",
  "icon": "waypoint-normal.png",
  "x": -1660,
  "y": 44,
  "z": 178,
  "r": 33,
  "g": 68,
  "b": 100,
  "enable": false,
  "type": "Normal",
  "origin": "JourneyMap",
  "dimensions": [
    0
  ]
}