{
  "id": "andesites_-811,104,313",
  "name": "andesites",
  "icon": "waypoint-normal.png",
  "x": -811,
  "y": 104,
  "z": 313,
  "r": 151,
  "g": 219,
  "b": 96,
  "enable": false,
  "type": "Normal",
  "origin": "JourneyMap",
  "dimensions": [
    0
  ]
}