{
  "id": "andesites_-54,69,265",
  "name": "andesites",
  "icon": "waypoint-normal.png",
  "x": -54,
  "y": 69,
  "z": 265,
  "r": 100,
  "g": 19,
  "b": 17,
  "enable": false,
  "type": "Normal",
  "origin": "JourneyMap",
  "dimensions": [
    0
  ]
}