{
  "id": "bauxite_457,88,310",
  "name": "bauxite",
  "icon": "waypoint-normal.png",
  "x": 457,
  "y": 88,
  "z": 310,
  "r": 149,
  "g": 126,
  "b": 100,
  "enable": false,
  "type": "Normal",
  "origin": "JourneyMap",
  "dimensions": [
    0
  ]
}