{
  "id": "diorites_-440,74,281",
  "name": "diorites",
  "icon": "waypoint-normal.png",
  "x": -440,
  "y": 74,
  "z": 281,
  "r": 180,
  "g": 33,
  "b": 213,
  "enable": false,
  "type": "Normal",
  "origin": "JourneyMap",
  "dimensions": [
    0
  ]
}