{
  "id": "Diorites_-729,52,303",
  "name": "Diorites",
  "icon": "waypoint-normal.png",
  "x": -729,
  "y": 52,
  "z": 303,
  "r": 158,
  "g": 204,
  "b": 101,
  "enable": false,
  "type": "Normal",
  "origin": "JourneyMap",
  "dimensions": [
    0
  ]
}