{
  "id": "diorites_-1528,76,283",
  "name": "diorites",
  "icon": "waypoint-normal.png",
  "x": -1528,
  "y": 76,
  "z": 283,
  "r": 21,
  "g": 27,
  "b": 101,
  "enable": false,
  "type": "Normal",
  "origin": "JourneyMap",
  "dimensions": [
    0
  ]
}