{
  "id": "diorites_-346,75,263",
  "name": "diorites",
  "icon": "waypoint-normal.png",
  "x": -346,
  "y": 75,
  "z": 263,
  "r": 177,
  "g": 1,
  "b": 231,
  "enable": false,
  "type": "Normal",
  "origin": "JourneyMap",
  "dimensions": [
    0
  ]
}