{
  "id": "iron_-949,82,262",
  "name": "iron",
  "icon": "waypoint-normal.png",
  "x": -949,
  "y": 82,
  "z": 262,
  "r": 130,
  "g": 165,
  "b": 100,
  "enable": false,
  "type": "Normal",
  "origin": "JourneyMap",
  "dimensions": [
    0
  ]
}