{
  "id": "iron_503,82,280",
  "name": "iron",
  "icon": "waypoint-normal.png",
  "x": 503,
  "y": 82,
  "z": 280,
  "r": 50,
  "g": 100,
  "b": 57,
  "enable": false,
  "type": "Normal",
  "origin": "JourneyMap",
  "dimensions": [
    0
  ]
}