{
  "id": "Magnetite_456,52,303",
  "name": "Magnetite",
  "icon": "waypoint-normal.png",
  "x": 456,
  "y": 52,
  "z": 303,
  "r": 31,
  "g": 159,
  "b": 227,
  "enable": false,
  "type": "Normal",
  "origin": "JourneyMap",
  "dimensions": [
    0
  ]
}