{
  "id": "marble_-1479,52,186",
  "name": "marble",
  "icon": "waypoint-normal.png",
  "x": -1479,
  "y": 52,
  "z": 186,
  "r": 77,
  "g": 127,
  "b": 215,
  "enable": false,
  "type": "Normal",
  "origin": "JourneyMap",
  "dimensions": [
    0
  ]
}