{
  "id": "pitchblende_650,76,313",
  "name": "pitchblende",
  "icon": "waypoint-normal.png",
  "x": 650,
  "y": 76,
  "z": 313,
  "r": 128,
  "g": 115,
  "b": 90,
  "enable": false,
  "type": "Normal",
  "origin": "JourneyMap",
  "dimensions": [
    0
  ]
}