{
  "id": "pitchblende_-616,105,282",
  "name": "pitchblende",
  "icon": "waypoint-normal.png",
  "x": -616,
  "y": 105,
  "z": 282,
  "r": 82,
  "g": 104,
  "b": 44,
  "enable": false,
  "type": "Normal",
  "origin": "JourneyMap",
  "dimensions": [
    0
  ]
}