{
  "id": "portalgun_5527,65,-1505",
  "name": "portalgun",
  "icon": "waypoint-normal.png",
  "x": 5527,
  "y": 65,
  "z": -1505,
  "r": 61,
  "g": 138,
  "b": 206,
  "enable": false,
  "type": "Normal",
  "origin": "JourneyMap",
  "dimensions": [
    0
  ]
}