{
  "id": "reactormethals_613,76,316",
  "name": "reactormethals",
  "icon": "waypoint-normal.png",
  "x": 613,
  "y": 76,
  "z": 316,
  "r": 247,
  "g": 91,
  "b": 99,
  "enable": false,
  "type": "Normal",
  "origin": "JourneyMap",
  "dimensions": [
    0
  ]
}