{
  "id": "reactormethals_-634,98,279",
  "name": "reactormethals",
  "icon": "waypoint-normal.png",
  "x": -634,
  "y": 98,
  "z": 279,
  "r": 176,
  "g": 236,
  "b": 46,
  "enable": false,
  "type": "Normal",
  "origin": "JourneyMap",
  "dimensions": [
    0
  ]
}