{
  "id": "Reactor methals_469,52,303",
  "name": "Reactor methals",
  "icon": "waypoint-normal.png",
  "x": 469,
  "y": 52,
  "z": 303,
  "r": 213,
  "g": 51,
  "b": 248,
  "enable": false,
  "type": "Normal",
  "origin": "JourneyMap",
  "dimensions": [
    0
  ]
}